[
    {
        "name":"Sneaky",
        "id":12,
        "type":"shoes",
        "cost":50
    },
    {
        "name":"MLBNY",
        "id":13,
        "type":"shoes",
        "cost":50
    },
    {
        "name":"SneakyDior",
        "id":14,
        "type":"shoes",
        "cost":50,
        "new":"(NEW)"
    },
    {
        "name":"NikeAir",
        "id":15,
        "type":"shoes",
        "cost":50
    },
    {
        "name":"MLBBigBall",
        "id":16,
        "type":"shoes",
        "cost":50,
        "sale":"(-50%)",
        "new":"(NEW)"
    },
    {
        "name":"BigBallChunky",
        "id":17,
        "type":"shoes",
        "cost":50
    },
    {
        "name":"Lily",
        "id":18,
        "type":"shoes",
        "cost":50
    },
    {
        "name":"AdidaProphere",
        "id":19,
        "type":"shoes",
        "cost":50
    },
    {
        "name":"Ananas",
        "id":20,
        "type":"shoes",
        "cost":50,
        "sale":"(-50%)",
        "new":"(NEW)"
    },
    {
        "name":"AdidasAlpha",
        "id":21,
        "type":"shoes",
        "cost":50
    },
    {
        "name":"GucciSneaky",
        "id":22,
        "type":"shoes",
        "cost":50,
        "sale":"(-50%)"
    }
]